Lexanomics Blog - Yet another tip for speeding up DEG analysis on Seurat
…
end_time <- Sys.time()

What?! How is that? I haven’t change my code at all.

Yes, young bioinformatician. I said it was convenient everything you need for running it is already in place in Seurat version 5.1.0. For those not using this versions, you can also rely on SeuratWrappers. This package has a function called RunPrestoAll.

4. Inspecting DEG table

seurat_markers %>%
  group_by(cluster) %>%
  select(cluster, gene, pct.1, pct.2, avg_log2FC, p_val) %>%
  top_n(5)

# A tibble: 110 × 6
# Groups:   cluster [22]
   cluster gene            pct.1 pct.2 avg_log2FC   p_val
   <fct>   <chr>           <dbl> <dbl>      <dbl>   <dbl>
 1 0       SLC26A1         0.01  0.004      0.798 0.00631
 2 0       NATD1           0.037 0.024      0.246 0.00740
 3 0       SLC35G1         0.012 0.005      0.428 0.00770
 4 0       ENSG00000273088 0.022 0.012      0.145 0.00832
 5 0       CTSK            0.041 0.027      0.903 0.00873
 6 1       TMSB15B.1       0.012 0.006      2.82  0.00975
 7 1       PGLYRP2         0.018 0.01       1.93  0.00975
 8 1       ZNF585B         0.016 0.031      0.418 0.00977
 9 1       ZNF567          0.078 0.111      0.785 0.00983
10 1       SOBP            0.011 0.023      0.128 0.00988
# ℹ 100 more rows
…
